[gd_scene load_steps=2 format=2]

[ext_resource path="res://models/shelf.glb" type="PackedScene" id=1]

[node name="shelf" instance=ExtResource( 1 )]
transform = Transform( 0.2, 0, 0, 0, 0.2, 0, 0, 0, 0.2, 0, 0, 0 )
