[gd_scene load_steps=2 format=2]

[ext_resource path="res://models/bookshelf.glb" type="PackedScene" id=1]

[node name="bookshelf" instance=ExtResource( 1 )]
transform = Transform( 0.4, 0, 0, 0, 0.4, 0, 0, 0, 0.4, 0, 0, 0 )
