# Blender v3.1.2 OBJ File: ''
# www.blender.org
mtllib untitled1.mtl
o Cube
v 0.000000 1.000000 -2.000000
v 0.000000 -1.000000 -2.000000
v 0.000000 1.000000 -1.900000
v 0.000000 -1.000000 -1.900000
v -2.000000 1.000000 -2.000000
v -2.000000 -1.000000 -2.000000
v -2.000000 1.000000 -1.900000
v -2.000000 -1.000000 -1.900000
v -1.900000 -1.000000 -2.000000
v -1.900000 1.000000 -1.900000
v -1.900000 -1.000000 -1.900000
v -1.900000 1.000000 -2.000000
v -2.000000 1.000000 0.000000
v -2.000000 -1.000000 0.000000
v -1.900000 1.000000 0.000000
v -1.900000 -1.000000 0.000000
v -1.900000 -1.000000 -0.095000
v -1.900000 1.000000 -0.095000
v -2.000000 1.000000 -0.095000
v -2.000000 -1.000000 -0.095000
v -0.000000 1.000000 0.000000
v -0.000000 -1.000000 0.000000
v -0.000000 -1.000000 -0.095000
v -0.000000 1.000000 -0.095000
v -0.095000 1.000000 0.000000
v -0.095000 1.000000 -0.095000
v -0.095000 -1.000000 0.000000
v -0.095000 -1.000000 -0.095000
v -0.000000 -1.000000 -1.995000
v -0.000000 1.000000 -1.995000
v -0.095000 1.000000 -1.995000
v -0.095000 -1.000000 -1.995000
v -2.000000 -1.000000 0.000000
v -1.900000 -1.000000 0.000000
v 0.000000 1.000000 -0.100000
v 0.000000 -1.000000 -0.100000
v 0.000000 1.000000 0.000000
v 0.000000 -1.000000 0.000000
v -2.000000 1.000000 -0.100000
v -2.000000 -1.000000 -0.100000
v -2.000000 1.000000 0.000000
v -2.000000 -1.000000 0.000000
v -1.900000 -1.000000 -0.100000
v -1.900000 1.000000 0.000000
v -1.900000 -1.000000 0.000000
v -1.900000 1.000000 -0.100000
v -2.000000 1.000000 1.900000
v -2.000000 -1.000000 1.900000
v -1.900000 1.000000 1.900000
v -1.900000 -1.000000 1.900000
v -1.900000 -1.000000 1.805000
v -1.900000 1.000000 1.805000
v -2.000000 1.000000 1.805000
v -2.000000 -1.000000 1.805000
v -0.000000 1.000000 1.900000
v -0.000000 -1.000000 1.900000
v -0.000000 -1.000000 1.805000
v -0.000000 1.000000 1.805000
v -0.095000 1.000000 1.900000
v -0.095000 1.000000 1.805000
v -0.095000 -1.000000 1.900000
v -0.095000 -1.000000 1.805000
v -0.000000 -1.000000 -0.095000
v -0.000000 1.000000 -0.095000
v -0.095000 1.000000 -0.095000
v -0.095000 -1.000000 -0.095000
v -2.000000 -1.000000 1.900000
v -1.900000 -1.000000 1.900000
v 1.900000 1.000000 -0.100000
v 1.900000 -1.000000 -0.100000
v 1.900000 1.000000 0.000000
v 1.900000 -1.000000 0.000000
v -0.100000 1.000000 -0.100000
v -0.100000 -1.000000 -0.100000
v -0.100000 1.000000 0.000000
v -0.100000 -1.000000 0.000000
v -0.000000 -1.000000 -0.100000
v -0.000000 1.000000 0.000000
v -0.000000 -1.000000 0.000000
v -0.000000 1.000000 -0.100000
v -0.100000 1.000000 1.900000
v -0.100000 -1.000000 1.900000
v -0.000000 1.000000 1.900000
v -0.000000 -1.000000 1.900000
v -0.000000 -1.000000 1.805000
v -0.000000 1.000000 1.805000
v -0.100000 1.000000 1.805000
v -0.100000 -1.000000 1.805000
v 1.900000 1.000000 1.900000
v 1.900000 -1.000000 1.900000
v 1.900000 -1.000000 1.805000
v 1.900000 1.000000 1.805000
v 1.805000 1.000000 1.900000
v 1.805000 1.000000 1.805000
v 1.805000 -1.000000 1.900000
v 1.805000 -1.000000 1.805000
v 1.900000 -1.000000 -0.095000
v 1.900000 1.000000 -0.095000
v 1.805000 1.000000 -0.095000
v 1.805000 -1.000000 -0.095000
v -0.100000 -1.000000 1.900000
v -0.000000 -1.000000 1.900000
v 1.900000 1.000000 -2.000000
v 1.900000 -1.000000 -2.000000
v 1.900000 1.000000 -1.900000
v 1.900000 -1.000000 -1.900000
v -0.100000 1.000000 -2.000000
v -0.100000 -1.000000 -2.000000
v -0.100000 1.000000 -1.900000
v -0.100000 -1.000000 -1.900000
v -0.000000 -1.000000 -2.000000
v -0.000000 1.000000 -1.900000
v -0.000000 -1.000000 -1.900000
v -0.000000 1.000000 -2.000000
v -0.100000 1.000000 0.000000
v -0.100000 -1.000000 0.000000
v -0.000000 1.000000 0.000000
v -0.000000 -1.000000 0.000000
v -0.000000 -1.000000 -0.095000
v -0.000000 1.000000 -0.095000
v -0.100000 1.000000 -0.095000
v -0.100000 -1.000000 -0.095000
v 1.900000 1.000000 0.000000
v 1.900000 -1.000000 0.000000
v 1.900000 -1.000000 -0.095000
v 1.900000 1.000000 -0.095000
v 1.805000 1.000000 0.000000
v 1.805000 1.000000 -0.095000
v 1.805000 -1.000000 0.000000
v 1.805000 -1.000000 -0.095000
v 1.900000 -1.000000 -1.995000
v 1.900000 1.000000 -1.995000
v 1.805000 1.000000 -1.995000
v 1.805000 -1.000000 -1.995000
v -0.100000 -1.000000 0.000000
v -0.000000 -1.000000 0.000000
vt 0.862500 0.500000
vt 0.875000 0.500000
vt 0.875000 0.750000
vt 0.862500 0.750000
vt 0.375000 0.987500
vt 0.625000 0.987500
vt 0.625000 1.000000
vt 0.375000 1.000000
vt 0.375000 0.000000
vt 0.625000 0.000000
vt 0.625000 0.250000
vt 0.375000 0.250000
vt 0.137500 0.500000
vt 0.375000 0.500000
vt 0.375000 0.750000
vt 0.137500 0.750000
vt 0.625000 0.500000
vt 0.625000 0.750000
vt 0.375000 0.262500
vt 0.625000 0.262500
vt 0.125000 0.500000
vt 0.125000 0.750000
vt 0.375000 0.987500
vt 0.625000 0.987500
vt 0.625000 0.987500
vt 0.375000 0.987500
vt 0.625000 1.000000
vt 0.375000 1.000000
vt 0.375000 1.000000
vt 0.625000 1.000000
vt 0.137500 0.750000
vt 0.125000 0.750000
vt 0.125000 0.750000
vt 0.137500 0.750000
vt 0.625000 0.987500
vt 0.625000 0.987500
vt 0.625000 0.987500
vt 0.625000 0.987500
vt 0.375000 0.987500
vt 0.375000 0.987500
vt 0.137500 0.750000
vt 0.137500 0.750000
vt 0.137500 0.750000
vt 0.137500 0.750000
vt 0.375000 0.987500
vt 0.375000 0.987500
vt 0.375000 0.987500
vt 0.375000 0.987500
vt 0.625000 0.987500
vt 0.625000 0.987500
vt 0.125000 0.750000
vt 0.137500 0.750000
vt 0.862500 0.500000
vt 0.875000 0.500000
vt 0.875000 0.750000
vt 0.862500 0.750000
vt 0.375000 0.987500
vt 0.625000 0.987500
vt 0.625000 1.000000
vt 0.375000 1.000000
vt 0.375000 0.000000
vt 0.625000 0.000000
vt 0.625000 0.250000
vt 0.375000 0.250000
vt 0.137500 0.500000
vt 0.375000 0.500000
vt 0.375000 0.750000
vt 0.137500 0.750000
vt 0.625000 0.500000
vt 0.625000 0.750000
vt 0.375000 0.262500
vt 0.625000 0.262500
vt 0.125000 0.500000
vt 0.125000 0.750000
vt 0.375000 0.987500
vt 0.625000 0.987500
vt 0.625000 0.987500
vt 0.375000 0.987500
vt 0.625000 1.000000
vt 0.375000 1.000000
vt 0.375000 1.000000
vt 0.625000 1.000000
vt 0.137500 0.750000
vt 0.125000 0.750000
vt 0.125000 0.750000
vt 0.137500 0.750000
vt 0.625000 0.987500
vt 0.625000 0.987500
vt 0.625000 0.987500
vt 0.625000 0.987500
vt 0.375000 0.987500
vt 0.375000 0.987500
vt 0.137500 0.750000
vt 0.137500 0.750000
vt 0.137500 0.750000
vt 0.137500 0.750000
vt 0.375000 0.987500
vt 0.375000 0.987500
vt 0.375000 0.987500
vt 0.375000 0.987500
vt 0.625000 0.987500
vt 0.625000 0.987500
vt 0.125000 0.750000
vt 0.137500 0.750000
vt 0.862500 0.500000
vt 0.875000 0.500000
vt 0.875000 0.750000
vt 0.862500 0.750000
vt 0.375000 0.987500
vt 0.625000 0.987500
vt 0.625000 1.000000
vt 0.375000 1.000000
vt 0.375000 0.000000
vt 0.625000 0.000000
vt 0.625000 0.250000
vt 0.375000 0.250000
vt 0.137500 0.500000
vt 0.375000 0.500000
vt 0.375000 0.750000
vt 0.137500 0.750000
vt 0.625000 0.500000
vt 0.625000 0.750000
vt 0.375000 0.262500
vt 0.625000 0.262500
vt 0.125000 0.500000
vt 0.125000 0.750000
vt 0.375000 0.987500
vt 0.625000 0.987500
vt 0.625000 0.987500
vt 0.375000 0.987500
vt 0.625000 1.000000
vt 0.375000 1.000000
vt 0.375000 1.000000
vt 0.625000 1.000000
vt 0.137500 0.750000
vt 0.125000 0.750000
vt 0.125000 0.750000
vt 0.137500 0.750000
vt 0.625000 0.987500
vt 0.625000 0.987500
vt 0.625000 0.987500
vt 0.625000 0.987500
vt 0.375000 0.987500
vt 0.375000 0.987500
vt 0.137500 0.750000
vt 0.137500 0.750000
vt 0.137500 0.750000
vt 0.137500 0.750000
vt 0.375000 0.987500
vt 0.375000 0.987500
vt 0.375000 0.987500
vt 0.375000 0.987500
vt 0.625000 0.987500
vt 0.625000 0.987500
vt 0.125000 0.750000
vt 0.137500 0.750000
vt 0.862500 0.500000
vt 0.875000 0.500000
vt 0.875000 0.750000
vt 0.862500 0.750000
vt 0.375000 0.987500
vt 0.625000 0.987500
vt 0.625000 1.000000
vt 0.375000 1.000000
vt 0.375000 0.000000
vt 0.625000 0.000000
vt 0.625000 0.250000
vt 0.375000 0.250000
vt 0.137500 0.500000
vt 0.375000 0.500000
vt 0.375000 0.750000
vt 0.137500 0.750000
vt 0.625000 0.500000
vt 0.625000 0.750000
vt 0.375000 0.262500
vt 0.625000 0.262500
vt 0.125000 0.500000
vt 0.125000 0.750000
vt 0.375000 0.987500
vt 0.625000 0.987500
vt 0.625000 0.987500
vt 0.375000 0.987500
vt 0.625000 1.000000
vt 0.375000 1.000000
vt 0.375000 1.000000
vt 0.625000 1.000000
vt 0.137500 0.750000
vt 0.125000 0.750000
vt 0.125000 0.750000
vt 0.137500 0.750000
vt 0.625000 0.987500
vt 0.625000 0.987500
vt 0.625000 0.987500
vt 0.625000 0.987500
vt 0.375000 0.987500
vt 0.375000 0.987500
vt 0.137500 0.750000
vt 0.137500 0.750000
vt 0.137500 0.750000
vt 0.137500 0.750000
vt 0.375000 0.987500
vt 0.375000 0.987500
vt 0.375000 0.987500
vt 0.375000 0.987500
vt 0.625000 0.987500
vt 0.625000 0.987500
vt 0.125000 0.750000
vt 0.137500 0.750000
vn 0.0000 1.0000 0.0000
vn 0.0000 0.0000 1.0000
vn -1.0000 0.0000 0.0000
vn 0.0000 -1.0000 0.0000
vn 1.0000 0.0000 0.0000
vn 0.0000 0.0000 -1.0000
usemtl Material
s off
f 12/1/1 5/2/1 7/3/1 10/4/1
f 11/5/2 10/6/2 7/7/2 8/8/2
f 8/9/3 7/10/3 5/11/3 6/12/3
f 9/13/4 2/14/4 4/15/4 11/16/4
f 2/14/5 1/17/5 3/18/5 4/15/5
f 9/19/6 12/20/6 1/17/6 2/14/6
f 6/12/6 5/11/6 12/20/6 9/19/6
f 6/21/4 9/13/4 11/16/4 8/22/4
f 4/15/2 3/18/2 10/6/2 11/5/2
f 1/17/1 12/1/1 10/4/1 3/18/1
f 17/23/5 18/24/5 15/25/5 16/26/5
f 19/27/3 20/28/3 14/29/3 13/30/3
f 17/31/1 20/32/1 14/33/1 16/34/1
f 18/24/1 19/27/1 13/30/1 15/25/1
f 10/6/1 7/7/1 19/27/1 18/24/1
f 11/16/1 8/22/1 20/32/1 17/31/1
f 7/7/3 8/8/3 20/28/3 19/27/3
f 11/5/5 10/6/5 18/24/5 17/23/5
f 25/35/4 26/36/4 24/37/4 21/38/4
f 27/39/6 25/35/6 21/38/6 22/40/6
f 28/41/1 27/42/1 22/43/1 23/44/1
f 28/45/6 26/36/6 24/37/6 23/46/6
f 17/23/6 18/24/6 26/36/6 28/45/6
f 17/31/1 16/34/1 27/42/1 28/41/1
f 16/26/6 15/25/6 25/35/6 27/39/6
f 15/25/4 18/24/4 26/36/4 25/35/4
f 28/45/1 23/46/1 29/47/1 32/48/1
f 24/37/4 26/36/4 31/49/4 30/50/4
f 23/46/3 24/37/3 30/50/3 29/47/3
f 28/45/3 26/36/3 31/49/3 32/48/3
f 16/34/2 14/33/2 33/51/2 34/52/2
f 46/53/1 39/54/1 41/55/1 44/56/1
f 45/57/2 44/58/2 41/59/2 42/60/2
f 42/61/3 41/62/3 39/63/3 40/64/3
f 43/65/4 36/66/4 38/67/4 45/68/4
f 36/66/5 35/69/5 37/70/5 38/67/5
f 43/71/6 46/72/6 35/69/6 36/66/6
f 40/64/6 39/63/6 46/72/6 43/71/6
f 40/73/4 43/65/4 45/68/4 42/74/4
f 38/67/2 37/70/2 44/58/2 45/57/2
f 35/69/1 46/53/1 44/56/1 37/70/1
f 51/75/5 52/76/5 49/77/5 50/78/5
f 53/79/3 54/80/3 48/81/3 47/82/3
f 51/83/1 54/84/1 48/85/1 50/86/1
f 52/76/1 53/79/1 47/82/1 49/77/1
f 44/58/1 41/59/1 53/79/1 52/76/1
f 45/68/1 42/74/1 54/84/1 51/83/1
f 41/59/3 42/60/3 54/80/3 53/79/3
f 45/57/5 44/58/5 52/76/5 51/75/5
f 59/87/4 60/88/4 58/89/4 55/90/4
f 61/91/6 59/87/6 55/90/6 56/92/6
f 62/93/1 61/94/1 56/95/1 57/96/1
f 62/97/6 60/88/6 58/89/6 57/98/6
f 51/75/6 52/76/6 60/88/6 62/97/6
f 51/83/1 50/86/1 61/94/1 62/93/1
f 50/78/6 49/77/6 59/87/6 61/91/6
f 49/77/4 52/76/4 60/88/4 59/87/4
f 62/97/1 57/98/1 63/99/1 66/100/1
f 58/89/4 60/88/4 65/101/4 64/102/4
f 57/98/3 58/89/3 64/102/3 63/99/3
f 62/97/3 60/88/3 65/101/3 66/100/3
f 50/86/2 48/85/2 67/103/2 68/104/2
f 80/105/1 73/106/1 75/107/1 78/108/1
f 79/109/2 78/110/2 75/111/2 76/112/2
f 76/113/3 75/114/3 73/115/3 74/116/3
f 77/117/4 70/118/4 72/119/4 79/120/4
f 70/118/5 69/121/5 71/122/5 72/119/5
f 77/123/6 80/124/6 69/121/6 70/118/6
f 74/116/6 73/115/6 80/124/6 77/123/6
f 74/125/4 77/117/4 79/120/4 76/126/4
f 72/119/2 71/122/2 78/110/2 79/109/2
f 69/121/1 80/105/1 78/108/1 71/122/1
f 85/127/5 86/128/5 83/129/5 84/130/5
f 87/131/3 88/132/3 82/133/3 81/134/3
f 85/135/1 88/136/1 82/137/1 84/138/1
f 86/128/1 87/131/1 81/134/1 83/129/1
f 78/110/1 75/111/1 87/131/1 86/128/1
f 79/120/1 76/126/1 88/136/1 85/135/1
f 75/111/3 76/112/3 88/132/3 87/131/3
f 79/109/5 78/110/5 86/128/5 85/127/5
f 93/139/4 94/140/4 92/141/4 89/142/4
f 95/143/6 93/139/6 89/142/6 90/144/6
f 96/145/1 95/146/1 90/147/1 91/148/1
f 96/149/6 94/140/6 92/141/6 91/150/6
f 85/127/6 86/128/6 94/140/6 96/149/6
f 85/135/1 84/138/1 95/146/1 96/145/1
f 84/130/6 83/129/6 93/139/6 95/143/6
f 83/129/4 86/128/4 94/140/4 93/139/4
f 96/149/1 91/150/1 97/151/1 100/152/1
f 92/141/4 94/140/4 99/153/4 98/154/4
f 91/150/3 92/141/3 98/154/3 97/151/3
f 96/149/3 94/140/3 99/153/3 100/152/3
f 84/138/2 82/137/2 101/155/2 102/156/2
f 114/157/1 107/158/1 109/159/1 112/160/1
f 113/161/2 112/162/2 109/163/2 110/164/2
f 110/165/3 109/166/3 107/167/3 108/168/3
f 111/169/4 104/170/4 106/171/4 113/172/4
f 104/170/5 103/173/5 105/174/5 106/171/5
f 111/175/6 114/176/6 103/173/6 104/170/6
f 108/168/6 107/167/6 114/176/6 111/175/6
f 108/177/4 111/169/4 113/172/4 110/178/4
f 106/171/2 105/174/2 112/162/2 113/161/2
f 103/173/1 114/157/1 112/160/1 105/174/1
f 119/179/5 120/180/5 117/181/5 118/182/5
f 121/183/3 122/184/3 116/185/3 115/186/3
f 119/187/1 122/188/1 116/189/1 118/190/1
f 120/180/1 121/183/1 115/186/1 117/181/1
f 112/162/1 109/163/1 121/183/1 120/180/1
f 113/172/1 110/178/1 122/188/1 119/187/1
f 109/163/3 110/164/3 122/184/3 121/183/3
f 113/161/5 112/162/5 120/180/5 119/179/5
f 127/191/4 128/192/4 126/193/4 123/194/4
f 129/195/6 127/191/6 123/194/6 124/196/6
f 130/197/1 129/198/1 124/199/1 125/200/1
f 130/201/6 128/192/6 126/193/6 125/202/6
f 119/179/6 120/180/6 128/192/6 130/201/6
f 119/187/1 118/190/1 129/198/1 130/197/1
f 118/182/6 117/181/6 127/191/6 129/195/6
f 117/181/4 120/180/4 128/192/4 127/191/4
f 130/201/1 125/202/1 131/203/1 134/204/1
f 126/193/4 128/192/4 133/205/4 132/206/4
f 125/202/3 126/193/3 132/206/3 131/203/3
f 130/201/3 128/192/3 133/205/3 134/204/3
f 118/190/2 116/189/2 135/207/2 136/208/2
